…
    ## Warning: `funs()` was deprecated in dplyr 0.8.0.
    ## ℹ Please use a list of either functions or lambdas:
    ## 
    ## # Simple named list: list(mean = mean, median = median)
    ## 
    ## # Auto named with `tibble::lst()`: tibble::lst(mean, median)
    ## 
    ## # Using lambdas list(~ mean(., trim = .2), ~ median(., na.rm = TRUE))
    ## Call `lifecycle::last_lifecycle_warnings()` to see where this warning was
    ## generated.

    ## # A tibble: 82 × 3
    ## # Groups:   nombre_tienda [82]
    ##    nombre_tienda                        anio `CEDAR RAPIDS`
    ##    <chr>                               <dbl>          <dbl>
    ##  1 SAM'S CLUB 8162 / CEDAR RAPIDS       2016           354.
    ##  2 FAREWAY STORES #151 / CEDAR RAPIDS   2016           338.
    ##  3 BENZ DISTRIBUTING                    2016           171.
    ##  4 LEO1  /  CEDAR RAPIDS                2016           163.
    ##  5 TARGET STORE T-1771 / CEDAR RAPIDS   2016           162.
    ##  6 CASEY'S GENERAL STORE #2763 / CEDAR  2016           157.
    ##  7 WAL-MART 2716 / CEDAR RAPIDS         2016           156.
    ##  8 FAS MART # 5150/ CEDAR RAPIDS        2016           152.
    ##  9 WAL-MART 1528 / CEDAR RAPIDS         2016           152.
    ## 10 WALGREENS #03875 / CEDAR RAPIDS      2016           144.
    ## # ℹ 72 more rows
…
    ## Warning: `funs()` was deprecated in dplyr 0.8.0.
    ## ℹ Please use a list of either functions or lambdas:
    ## 
    ## # Simple named list: list(mean = mean, median = median)
    ## 
    ## # Auto named with `tibble::lst()`: tibble::lst(mean, median)
    ## 
    ## # Using lambdas list(~ mean(., trim = .2), ~ median(., na.rm = TRUE))
    ## Call `lifecycle::last_lifecycle_warnings()` to see where this warning was
    ## generated.

    ## # A tibble: 42 × 3
    ## # Groups:   Vendor.Name [42]
    ##    Vendor.Name                    anio DAVENPORT
    ##    <chr>                         <dbl>     <dbl>
    ##  1 Luxco-St Louis                 2016      36.5
    ##  2 A HARDY USA LTD                2016      37.0
    ##  3 Rumcoqui and Co                2016      38.3
    ##  4 Prestige Wine & Spirits Group  2016      42.1
    ##  5 Dehner Distillery              2016      42.7
    ##  6 Stoli Group                    2016      43.1
    ##  7 McCormick Distilling Co.       2016      46.9
    ##  8 Mccormick Distilling Company   2016      48.6
    ##  9 Blaum Bros. Distilling Co.     2016      49  
    ## 10 Aiko Importers Inc             2016      49.0
    ## # ℹ 32 more rows
…
